…
``` r
linear_prediction  <- lm(market_value ~ -1 + factor(position_new) + age + matches + goals + own_goals +
                  assists + yellow_cards + red_cards + substituted_on +
                  substituted_off + factor(age_range) + factor(position_new) * goals + factor(position_new) * assists, data =   players1)
tidy(linear_prediction)
```

    ## # A tibble: 21 x 5
    ##    term                           estimate std.error statistic p.value
    ##    <chr>                             <dbl>     <dbl>     <dbl>   <dbl>
    ##  1 factor(position_new)Defender     12.6      15.4      0.818  0.414  
    ##  2 factor(position_new)Forward      -0.965    15.7     -0.0616 0.951  
    ##  3 factor(position_new)Goalkeeper   17.2      16.1      1.07   0.287  
    ##  4 factor(position_new)Midfielder   18.1      15.4      1.17   0.242  
    ##  5 age                               0.112     0.734    0.153  0.879  
    ##  6 matches                           0.579     0.219    2.64   0.00852
    ##  7 goals                             2.04      1.66     1.23   0.220  
    ##  8 own_goals                        -0.367     5.66    -0.0649 0.948  
    ##  9 assists                           0.789     1.12     0.707  0.480  
    ## 10 yellow_cards                     -0.515     0.599   -0.859  0.391  
    ## # ... with 11 more rows
…
